…
``` r
path <- file.path("data", "hotdogs.tsv")
read_delim(path,
           delim = "\t"
)
```

    ## Parsed with column specification:
    ## cols(
    ##   Beef = col_character(),
    ##   `186` = col_integer(),
    ##   `495` = col_integer()
    ## )

    ## # A tibble: 53 × 3
    ##     Beef `186` `495`
    ##    <chr> <int> <int>
    ## 1   Beef   181   477
    ## 2   Beef   176   425
    ## 3   Beef   149   322
    ## 4   Beef   184   482
    ## 5   Beef   190   587
    ## 6   Beef   158   370
    ## 7   Beef   139   322
    ## 8   Beef   175   479
    ## 9   Beef   148   375
    ## 10  Beef   152   330
    ## # ... with 43 more rows
…
``` r
read_delim(path,
           delim = "\t",
           col_names = c("type", "kcal", "sodium")
)
```

    ## Parsed with column specification:
    ## cols(
    ##   type = col_character(),
    ##   kcal = col_integer(),
    ##   sodium = col_integer()
    ## )

    ## # A tibble: 54 × 3
    ##     type  kcal sodium
    ##    <chr> <int>  <int>
    ## 1   Beef   186    495
    ## 2   Beef   181    477
    ## 3   Beef   176    425
    ## 4   Beef   149    322
    ## 5   Beef   184    482
    ## 6   Beef   190    587
    ## 7   Beef   158    370
    ## 8   Beef   139    322
    ## 9   Beef   175    479
    ## 10  Beef   148    375
    ## # ... with 44 more rows
…
Enfin, on peut spécifier le type de chaque de plusieurs façons :

``` r
read_delim(path,
           delim = "\t",
           col_names = c("type", "kcal", "sodium"),
           col_types = cols(
               "type" = "c",
               "kcal" = "c",
               "sodium" = "c"
           )
)
```

    ## # A tibble: 54 × 3
    ##     type  kcal sodium
    ##    <chr> <chr>  <chr>
    ## 1   Beef   186    495
    ## 2   Beef   181    477
    ## 3   Beef   176    425
    ## 4   Beef   149    322
    ## 5   Beef   184    482
    ## 6   Beef   190    587
    ## 7   Beef   158    370
    ## 8   Beef   139    322
    ## 9   Beef   175    479
    ## 10  Beef   148    375
    ## # ... with 44 more rows
…
``` r
read_delim(path,
           delim = "\t",
           col_names = FALSE
)
```

    ## Parsed with column specification:
    ## cols(
    ##   X1 = col_character(),
    ##   X2 = col_integer(),
    ##   X3 = col_integer()
    ## )

    ## # A tibble: 54 × 3
    ##       X1    X2    X3
    ##    <chr> <int> <int>
    ## 1   Beef   186   495
    ## 2   Beef   181   477
    ## 3   Beef   176   425
    ## 4   Beef   149   322
    ## 5   Beef   184   482
    ## 6   Beef   190   587
    ## 7   Beef   158   370
    ## 8   Beef   139   322
    ## 9   Beef   175   479
    ## 10  Beef   148   375
    ## # ... with 44 more rows
Ou

``` r
read_delim(path,
           delim = "\t",
           col_names = c("type", "kcal", "sodium"),
           col_types = cols(
               "type" = col_factor(c("Beef", "Meat", "Poultry"), ordered=FALSE),
               "kcal" = col_double(),
               "sodium" = col_double()
           )
)
```

    ## # A tibble: 54 × 3
    ##      type  kcal sodium
    ##    <fctr> <dbl>  <dbl>
    ## 1    Beef   186    495
    ## 2    Beef   181    477
    ## 3    Beef   176    425
    ## 4    Beef   149    322
    ## 5    Beef   184    482
    ## 6    Beef   190    587
    ## 7    Beef   158    370
    ## 8    Beef   139    322
    ## 9    Beef   175    479
    ## 10   Beef   148    375
    ## # ... with 44 more rows
…
